{
  "results": [
    {
      "id": 372652350131,
      "url": "https://z3n-nextelfull-homologa2.zendesk.com/api/v2/users/372652350131.json",
      "name": "VITORIA ALMEIDA DA SILVA",
      "email": "vivialmeida997@gmail.com",
      "created_at": "2018-11-14T18:56:39Z",
      "updated_at": "2018-11-14T18:57:43Z",
      "time_zone": "Brasilia",
      "iana_time_zone": "America/Sao_Paulo",
      "phone": "",
      "shared_phone_number": "",
      "photo": "",
      "locale_id": 19,
      "locale": "pt-br",
      "organization_id": 12313131231312,
      "role": "end-user",
      "verified": false,
      "external_id": "43994909856",
      "tags": [
        "classificacao_5",
        "segmento_1"
      ],
      "alias": "",
      "active": true,
      "shared": false,
      "shared_agent": false,
      "last_login_at": "",
      "two_factor_auth_enabled": false,
      "signature": "",
      "details": "",
      "notes": "",
      "role_type": "",
      "custom_role_id": 123123123123,
      "moderator": false,
      "ticket_restriction": "requested",
      "only_private_comments": false,
      "restricted_agent": true,
      "suspended": false,
      "chat_only": false,
      "default_group_id": 123123123123,
      "report_csv": false,
      "user_fields": {
        "classificao": "classificacao_5",
        "cliente_contumaz": false,
        "codigo_interno_bgn": "11507907",
        "cpf_cnpj": "43994909856",
        "e_mail_de_cobrana": "vivialmeida997@gmail.com",
        "inscrio_estadual": "54685371",
        "inscrio_municipal": "",
        "login": "",
        "natureza": "F",
        "nome_razo_social": "VITORIA ALMEIDA DA SILVA",
        "segmento": "segmento_1",
        "tipos_de_endereo": "",
        "tipo_do_cliente": "Assinante Digital"
      },
      "result_type": "user"
    }
  ],
  "facets": "",
  "next_page": "https://z3n-nextelfull-homologa2.zendesk.com/api/v2/search.json?page=2&query=type%3Auser",
  "previous_page": "",
  "count": 4122
}